%YAML 1.1
%TAG !u! tag:unity3d.com,2011:
--- !u!21 &2100000
Material:
  serializedVersion: 6
  m_ObjectHideFlags: 0
  m_CorrespondingSourceObject: {fileID: 0}
  m_PrefabInstance: {fileID: 0}
  m_PrefabAsset: {fileID: 0}
  m_Name: SRP Universal GlintSparkle
  m_Shader: {fileID: 4800000, guid: acb91dbfcbbefd947824d7b0836c488c, type: 3}
  m_ShaderKeywords: _DIRECTION_Y _INVERTDIRECTION_ON
  m_LightmapFlags: 2
  m_EnableInstancingVariants: 0
  m_DoubleSidedGI: 0
  m_CustomRenderQueue: -1
  stringTagMap: {}
  disabledShaderPasses: []
  m_SavedProperties:
    serializedVersion: 3
    m_TexEnvs:
    - _Noise:
        m_Texture: {fileID: 2800000, guid: bdbe94d7623ec3940947b62544306f1c, type: 3}
        m_Scale: {x: 1, y: 1}
        m_Offset: {x: 0, y: 0}
    - _Normals:
        m_Texture: {fileID: 0}
        m_Scale: {x: 1, y: 1}
        m_Offset: {x: 0, y: 0}
    - _Texture0:
        m_Texture: {fileID: 2800000, guid: af6ca4ce20747824fb44f614761895f4, type: 3}
        m_Scale: {x: 1, y: 1}
        m_Offset: {x: 0, y: 0}
    - _TextureSample2:
        m_Texture: {fileID: 2800000, guid: 5b653e484c8e303439ef414b62f969f0, type: 3}
        m_Scale: {x: 1, y: 1}
        m_Offset: {x: 0, y: 0}
    - _texcoord:
        m_Texture: {fileID: 0}
        m_Scale: {x: 1, y: 1}
        m_Offset: {x: 0, y: 0}
    m_Floats:
    - _AlphaCutoff: 0.5
    - _Brightness: 5
    - _Direction: 1
    - _Float1: 0.023
    - _Float3: 0.05
    - _Frequency: 4
    - _InvertDirection: 1
    - _Range: 0.5
    - _ScreenContribution: 0.2
    - _ScreenMovementContribution: 0.2
    - _SpakleSpeed: 0.002
    - _SparklesBrightness: 5
    - _TailHeadFalloff: 0.9
    - _Threshold: 0.5
    - __dirty: 0
    m_Colors:
    - _Albedo: {r: 0.7647059, g: 0.5730754, b: 0.11245606, a: 0}
    - _BodyGlow: {r: 0.6323529, g: 0.4794762, b: 0, a: 0}
    - _Color0: {r: 0.63235295, g: 0.47947615, b: 0, a: 0}
    - _EmissionColor: {r: 1, g: 1, b: 1, a: 1}
    - _GlintColor: {r: 1, g: 0.9154145, b: 0.42924255, a: 0}
    - _GlintFresnel: {r: 0.01, g: 3, b: 4, a: 0}
    - _MainGlowFresnel: {r: 0.02, g: 1, b: 5, a: 0}
    - _SizeSpeedInterval: {r: 0.5, g: 10, b: 5, a: 0}
    - _SparkleColor: {r: 1, g: 0.7779999, b: 0.29716685, a: 1}
    - _SparkleFresnel: {r: 0.02, g: 0.8, b: 2, a: 0}
  m_BuildTextureStacks: []
